R for Education - Data Visualization in R using ggplot2
…
Let’s start with a scatter plot comparing scores across two subjects, assuming our dataset has Math and Science scores. However, see that your dataset currently is in long format. So, we need to change it to wide format. Look at the following code chunk:

scores_data_wide <- scores_data %>% 
  filter(
    course %in% c("EDU 001", "EDU 302")
  ) %>% 
  pivot_wider(
    names_from = course, 
    values_from = score
  )

scores_data_wide

# A tibble: 24 × 5
   student studentid concentration `EDU 001` `EDU 302`
   <chr>       <dbl> <chr>             <dbl>     <dbl>
 1 Jostin          1 EPPE                 10         0
 2 Rony            2 EPPE                  6        75
 3 Jacob           3 CIS                  87         6
 4 Hwa             4 CIS                  75        75
 5 Emma            5 CIS                  19        48
 6 Ben             6 CIS                   9         1
 7 Maddie          7 HDLT                 40        89
 8 Alex            8 CIS                  72        52
 9 Krista          9 CIS                  97        61
10 Max            10 HDLT                 45        15
# ℹ 14 more rows
…
